{
  "devToolsPort": 19002,
  "expoServerPort": 19000,
  "packagerPort": 19001,
  "packagerPid": 17042,
  "expoServerNgrokUrl": "https://8j-jkz.anonymous.dsvgfacade.exp.direct",
  "packagerNgrokUrl": "https://packager.8j-jkz.anonymous.dsvgfacade.exp.direct",
  "ngrokPid": 17074
}
